…
    ## Warning: 2 parsing failures.
    ## row # A tibble: 2 x 5 col     row col   expected   actual        file                                expected   <int> <chr> <chr>      <chr>         <chr>                               actual 1   211 Top   ""         embedded null 'C:/Users/Dana/3_Professional/CBE/~ file 2   211 <NA>  10 columns 1 columns     'C:/Users/Dana/3_Professional/CBE/~

``` r
Arch241simple
```

    ## # A tibble: 211 x 10
    ##    Top      RH Sex   Subject    TS    TC     TA   PMV   PPD Experiment
    ##    <chr> <int> <chr>   <int> <dbl> <dbl>  <dbl> <dbl> <int> <chr>     
    ##  1 20       50 F           1 -1.32  1.73  0.31   -1.9    78 A         
    ##  2 20       50 F           2 -0.79  2.19  0.54   -1.9    78 A         
    ##  3 20       50 F           3 -2.82  3.73 -0.84   -1.9    78 A         
    ##  4 20       50 F           4 -2.55  3.41 -0.71   -1.9    78 A         
    ##  5 20       50 F           5 -1.26  3.11 -0.4    -1.9    78 A         
    ##  6 20       50 F           6 -1.94  2.54 -0.3    -1.9    78 A         
    ##  7 20       50 F           7 -2.16  3.09 -0.290  -1.9    78 A         
    ##  8 20       50 F           8 -3.44  3.49 -0.76   -1.9    78 A         
    ##  9 20       50 F           9 -2.35  2     0.24   -1.9    78 A         
    ## 10 20       50 F          10 -1.9   3.49 -0.88   -1.9    78 A         
    ## # ... with 201 more rows

### summary

``` r
# 
Arch241simple[1:30,] # the first 30 columns
```

    ## # A tibble: 30 x 10
    ##    Top      RH Sex   Subject    TS    TC     TA   PMV   PPD Experiment
    ##    <chr> <int> <chr>   <int> <dbl> <dbl>  <dbl> <dbl> <int> <chr>     
    ##  1 20       50 F           1 -1.32  1.73  0.31   -1.9    78 A         
    ##  2 20       50 F           2 -0.79  2.19  0.54   -1.9    78 A         
    ##  3 20       50 F           3 -2.82  3.73 -0.84   -1.9    78 A         
    ##  4 20       50 F           4 -2.55  3.41 -0.71   -1.9    78 A         
    ##  5 20       50 F           5 -1.26  3.11 -0.4    -1.9    78 A         
    ##  6 20       50 F           6 -1.94  2.54 -0.3    -1.9    78 A         
    ##  7 20       50 F           7 -2.16  3.09 -0.290  -1.9    78 A         
    ##  8 20       50 F           8 -3.44  3.49 -0.76   -1.9    78 A         
    ##  9 20       50 F           9 -2.35  2     0.24   -1.9    78 A         
    ## 10 20       50 F          10 -1.9   3.49 -0.88   -1.9    78 A         
    ## # ... with 20 more rows
…
